…
``` r
trashwheel = 
  read_excel(
    path = "./data/HealthyHarborWaterWheelTotals2018-7-28.xlsx",
    range = "A2:N52",
    sheet = "Professor Trash Wheel"
    ) %>% 
  janitor::clean_names() %>% 
  drop_na(dumpster) %>% 
  mutate(sports_balls = as.integer(sports_balls))
trashwheel
```

    ## # A tibble: 34 x 14
    ##    dumpster month  year date                weight_tons volume_cubic_ya~
    ##    <chr>    <chr> <dbl> <dttm>                    <dbl>            <dbl>
    ##  1 1        Janu~  2017 2017-01-02 00:00:00        1.79               15
    ##  2 2        Janu~  2017 2017-01-30 00:00:00        1.58               15
    ##  3 3        Febr~  2017 2017-02-26 00:00:00        2.32               18
    ##  4 4        Febr~  2017 2017-02-26 00:00:00        3.72               15
    ##  5 5        Febr~  2017 2017-02-28 00:00:00        1.45               15
    ##  6 6        March  2017 2017-03-30 00:00:00        1.71               15
    ##  7 7        April  2017 2017-04-01 00:00:00        1.82               15
    ##  8 8        April  2017 2017-04-20 00:00:00        2.37               15
    ##  9 9        May    2017 2017-05-10 00:00:00        2.64               15
    ## 10 10       May    2017 2017-05-26 00:00:00        2.78               15
    ## # ... with 24 more rows, and 8 more variables: plastic_bottles <dbl>,
    ## #   polystyrene <dbl>, cigarette_butts <dbl>, glass_bottles <dbl>,
    ## #   grocery_bags <dbl>, chip_bags <dbl>, sports_balls <int>,
    ## #   homes_powered <dbl>
…
