p8105_hw2_xl2934.utf8.md
…
Read and clean the Mr.Trash Wheel sheet

trashwheel = 
  read_excel(
    path = "./data/Trash-Wheel-Collection-Totals-8-6-19.xlsx",
    range = "A2:N406",
    sheet = "Mr. Trash Wheel"
    ) %>% 
  janitor::clean_names() %>% 
  drop_na(dumpster) %>% 
  mutate(sports_balls = as.integer(sports_balls))
trashwheel

## # A tibble: 344 x 14
##    dumpster month  year date                weight_tons volume_cubic_ya~
##       <dbl> <chr> <dbl> <dttm>                    <dbl>            <dbl>
##  1        1 May    2014 2014-05-16 00:00:00        4.31               18
##  2        2 May    2014 2014-05-16 00:00:00        2.74               13
##  3        3 May    2014 2014-05-16 00:00:00        3.45               15
##  4        4 May    2014 2014-05-17 00:00:00        3.1                15
##  5        5 May    2014 2014-05-17 00:00:00        4.06               18
##  6        6 May    2014 2014-05-20 00:00:00        2.71               13
##  7        7 May    2014 2014-05-21 00:00:00        1.91                8
##  8        8 May    2014 2014-05-28 00:00:00        3.7                16
##  9        9 June   2014 2014-06-05 00:00:00        2.52               14
## 10       10 June   2014 2014-06-11 00:00:00        3.76               18
## # ... with 334 more rows, and 8 more variables: plastic_bottles <dbl>,
## #   polystyrene <dbl>, cigarette_butts <dbl>, glass_bottles <dbl>,
## #   grocery_bags <dbl>, chip_bags <dbl>, sports_balls <int>,
## #   homes_powered <dbl>
…
pols_month = read_csv(file = "./data/pols-month.csv") %>% 
  separate(mon, c("year", "month", "day")) %>% 
  mutate(
    year = as.numeric(year), 
    month = as.numeric(month)) 
  
pols_month = mutate(pols_month, month = month.name[pull(pols_month, month)]) %>% 
  pivot_longer( 
    c("prez_gop", "prez_dem"), 
    names_to = "president", 
    names_prefix = "prez_") %>% 
  select(-value, -day)
pols_month

## # A tibble: 1,644 x 9
##     year month    gov_gop sen_gop rep_gop gov_dem sen_dem rep_dem president
##    <dbl> <chr>      <dbl>   <dbl>   <dbl>   <dbl>   <dbl>   <dbl> <chr>    
##  1  1947 January       23      51     253      23      45     198 gop      
##  2  1947 January       23      51     253      23      45     198 dem      
##  3  1947 February      23      51     253      23      45     198 gop      
##  4  1947 February      23      51     253      23      45     198 dem      
##  5  1947 March         23      51     253      23      45     198 gop      
##  6  1947 March         23      51     253      23      45     198 dem      
##  7  1947 April         23      51     253      23      45     198 gop      
##  8  1947 April         23      51     253      23      45     198 dem      
##  9  1947 May           23      51     253      23      45     198 gop      
## 10  1947 May           23      51     253      23      45     198 dem      
## # ... with 1,634 more rows
…
snp = read_csv(file = "./data/snp.csv") %>% 
  separate(date, c("month", "day", "year")) %>% 
  mutate(
    month = as.numeric(month), 
    day = as.numeric(day), 
    year = as.numeric(year)
    ) %>% 
  arrange(year, month) %>% 
  select( year, month, everything(), -day)

snp = mutate(snp, month = month.name[pull(snp, month)])
snp

## # A tibble: 787 x 3
##     year month     close
##    <dbl> <chr>     <dbl>
##  1  1950 January    17.0
##  2  1950 February   17.2
##  3  1950 March      17.3
##  4  1950 April      18.0
##  5  1950 May        18.8
##  6  1950 June       17.7
##  7  1950 July       17.8
##  8  1950 August     18.4
##  9  1950 September  19.5
## 10  1950 October    19.5
## # ... with 777 more rows
…
